Project 1: Narrative & Examples – Project 1
…
Next, we take the output of the GET() function (same output as function above) and turn it into a tibble by creating and using a helper function. This function both creates a tibble as well as assigns names that correspond to the requested data. This function was also used within future functions to quickly return the data in the tibble format, from which various edits on the data type in each column can be performed.

Census_2022 <- helper(URL_id) 
Census_2022

# A tibble: 44,079 × 4
   SEX   PWGTP MAR   SCHL 
   <chr> <chr> <chr> <chr>
 1 2     6     5     24   
 2 2     23    2     24   
 3 1     23    3     24   
 4 1     80    5     24   
 5 1     16    1     24   
 6 1     107   3     24   
 7 2     10    5     24   
 8 1     22    1     24   
 9 2     127   5     24   
10 2     46    5     24   
# ℹ 44,069 more rows

The census() function will build a URL based on variables specified within the function and then query the API and output the requested data as a neat tibble with appropriate data types. The following example highlights the data type coercion built into this function. For example, the time column JWAP has many NA values of JWAP because the JWAP variable (time of arrival for work) value in the API is a number code, in which 0 corresponds to either unemployed individuals or someone who is working from home, so a time of arrival for work is not applicable in this case. To help prevent excess burden on loading data, a geographical subset was added and assigned to state 20, which is the census code for the state of Kansas.

census(num_var = c("AGEP", "JWAP"))

# A tibble: 29,940 × 5
    AGEP JWAP                PWGTP SEX   state
   <dbl> <dttm>              <dbl> <chr> <chr>
 1    17 2025-10-01 06:47:00     3 2     20   
 2    17 NA                     12 1     20   
 3    21 NA                     73 2     20   
 4    22 2025-10-01 05:37:00    44 1     20   
 5    67 NA                     58 2     20   
 6    75 NA                      9 1     20   
 7    19 NA                     53 1     20   
 8    18 NA                      3 1     20   
 9    64 NA                    133 1     20   
10    19 NA                    102 2     20   
# ℹ 29,930 more rows

If we want to look at a range of years, the census_year_range function calls the census function once for each year of interest, then merges these tibbles into one with a year variable. Every year within the range of valid years for the census function applies, except 2020 as there is no census API for that year. In this example we chose the years 2022, which is the default year call in census, plus the year 2021. The resulting tibble is considerably larger (58,897 rows vs 28,957 rows) than the previous example of the use of the census function due to the inclusion of two years of data.

census_year_range(years = (c(2021, 2022)))

# A tibble: 58,897 × 5
   years  AGEP PWGTP SEX   state
   <chr> <dbl> <dbl> <chr> <chr>
 1 2021     24    67 1     20   
 2 2021     71   118 1     20   
 3 2021     22   103 1     20   
 4 2021     18   100 2     20   
 5 2021     79    13 2     20   
 6 2021     49    10 1     20   
 7 2021     88    12 2     20   
 8 2021     94     7 2     20   
 9 2021     74    97 1     20   
10 2021     27    78 1     20   
# ℹ 58,887 more rows
…
